public class Test1 {
	public static void main(String[] args) {
		for(int i=100;i<1000;i++)
				{
					int a,b,c;
					a=i%10;
					b=i/10%10;
					c=i/100;

					if(i==Math.pow(a, 3)+Math.pow(b, 3)+Math.pow(c, 3))
					{
						System.out.println(i);
					}
			}
    }
}